%YAML 1.1
%TAG !u! tag:unity3d.com,2011:
--- !u!1045 &1
EditorBuildSettings:
  m_ObjectHideFlags: 0
  serializedVersion: 2
  m_Scenes:
  - enabled: 1
    path: Assets/_MainGame/Scenes/01 - Menu.unity
    guid: 9fc0d4010bbf28b4594072e72b8655ab
  - enabled: 1
    path: Assets/_MainGame/Scenes/02 - Gameplay.unity
    guid: 60872785e511f944a83769f44e14463f
  m_configObjects: {}
