%YAML 1.1
%TAG !u! tag:unity3d.com,2011:
--- !u!114 &11400000
MonoBehaviour:
  m_ObjectHideFlags: 0
  m_CorrespondingSourceObject: {fileID: 0}
  m_PrefabInstance: {fileID: 0}
  m_PrefabAsset: {fileID: 0}
  m_GameObject: {fileID: 0}
  m_Enabled: 1
  m_EditorHideFlags: 0
  m_Script: {fileID: 11500000, guid: 6f78192cec1344d83a177ac5e6139ab3, type: 3}
  m_Name: Settings
  m_EditorClassIdentifier: 
  TotalMessagesSubmitted: 0
  TotalMessagesFailed: 0
  DesignMessagesSubmitted: 0
  DesignMessagesFailed: 0
  QualityMessagesSubmitted: 0
  QualityMessagesFailed: 0
  ErrorMessagesSubmitted: 0
  ErrorMessagesFailed: 0
  BusinessMessagesSubmitted: 0
  BusinessMessagesFailed: 0
  UserMessagesSubmitted: 0
  UserMessagesFailed: 0
  CustomArea: 
  gameKey:
  - 1ce4a8fa44352c694cf7ef6f2c5f5531
  - 5eff828ecb126286b89ef76ed0831d36
  secretKey:
  - 2fcec400ba0e4af626b5206a969189cb0a1da43b
  - 4b30d6668cbf36a9991807a8143ea6309bb4f12c
  Build:
  - 2.6
  - 2.6
  SelectedPlatformOrganization:
  - 
  - 
  SelectedPlatformStudio:
  - 
  - 
  SelectedPlatformGame:
  - 
  - 
  SelectedPlatformGameID: ffffffffffffffff
  SelectedOrganization: 0000000000000000
  SelectedStudio: 0000000000000000
  SelectedGame: 0000000000000000
  NewVersion: 7.3.23
  Changes: '7.3.23

    - fixed bug with custom fields (locale related bug)


    7.3.22

    -
    added external dependency manager for .unitypackage release as well to solve
    issues with appset id on android


    7.3.21

    - fixed bug in internal error
    reporting'
  SignUpOpen: 1
  StudioName: Leyla
  GameName: Stitch It Easy !
  OrganizationName: 
  OrganizationIdentifier: 
  EmailGA: 
  IntroScreen: 0
  InfoLogEditor: 1
  InfoLogBuild: 1
  VerboseLogBuild: 0
  UseManualSessionHandling: 0
  SendExampleGameDataToMyGame: 0
  InternetConnectivity: 0
  CustomDimensions01:
  - Settings
  CustomDimensions02: []
  CustomDimensions03: []
  ResourceItemTypes: []
  ResourceCurrencies: []
  LastCreatedGamePlatform: 0
  Platforms: 0b00000008000000
  CurrentInspectorState: 1
  ClosedHints: 
  DisplayHints: 0
  DisplayHintsScrollState: {x: 0, y: 0}
  Logo: {fileID: 2800000, guid: 98df8f9c5678a4e5d964caa1244e8958, type: 3}
  UpdateIcon: {fileID: 2800000, guid: 810bbb19deed24f3cb7b854f9bafde26, type: 3}
  InfoIcon: {fileID: 2800000, guid: 1b4dd779aadd54ac88856975af0d3c0a, type: 3}
  DeleteIcon: {fileID: 2800000, guid: 85a626f1668244d30a4e9f616991a793, type: 3}
  GameIcon: {fileID: 2800000, guid: a9ac7103fc40b4e00923bf8c2cb5d30f, type: 3}
  HomeIcon: {fileID: 2800000, guid: fe7e2ecc9b2fe447bafe90f6395d4709, type: 3}
  InstrumentIcon: {fileID: 2800000, guid: 2ba470b4dffd848c6b267c34770cc63e, type: 3}
  QuestionIcon: {fileID: 2800000, guid: f8ea67e311b0c4b2ea05718e90fd3b5b, type: 3}
  UserIcon: {fileID: 2800000, guid: f49ef75333ff247cfb5dad4dab0d4dac, type: 3}
  AmazonIcon: {fileID: 0}
  GooglePlayIcon: {fileID: 0}
  iosIcon: {fileID: 0}
  macIcon: {fileID: 0}
  windowsPhoneIcon: {fileID: 0}
  UsePlayerSettingsBuildNumber: 1
  SubmitErrors: 1
  NativeErrorReporting: 0
  MaxErrorCount: 10
  SubmitFpsAverage: 1
  SubmitFpsCritical: 1
  IncludeGooglePlay: 1
  FpsCriticalThreshold: 20
  FpsCirticalSubmitInterval: 1
  PlatformFoldOut: 0101
  CustomDimensions01FoldOut: 1
  CustomDimensions02FoldOut: 0
  CustomDimensions03FoldOut: 0
  ResourceItemTypesFoldOut: 0
  ResourceCurrenciesFoldOut: 0
